info face="Caviar Dreams" size=48 bold=0 italic=0 charset="" unicode=0 stretchH=100 smooth=1 aa=1 padding=0,0,0,0 spacing=0,0
common lineHeight=56 base=47 scaleW=512 scaleH=512 pages=1 packed=0
page id=0 file="caviar_dreams_48.png"
chars count=95
char id=32   x=0     y=0     width=0     height=0     xoffset=0     yoffset=47    xadvance=17     page=0  chnl=0 
char id=124   x=0     y=0     width=4     height=48     xoffset=3     yoffset=9    xadvance=9     page=0  chnl=0 
char id=125   x=4     y=0     width=17     height=48     xoffset=2     yoffset=9    xadvance=20     page=0  chnl=0 
char id=123   x=21     y=0     width=17     height=48     xoffset=2     yoffset=9    xadvance=20     page=0  chnl=0 
char id=93   x=38     y=0     width=10     height=48     xoffset=2     yoffset=9    xadvance=13     page=0  chnl=0 
char id=91   x=48     y=0     width=10     height=48     xoffset=2     yoffset=9    xadvance=13     page=0  chnl=0 
char id=81   x=58     y=0     width=41     height=46     xoffset=2     yoffset=8    xadvance=44     page=0  chnl=0 
char id=41   x=99     y=0     width=14     height=45     xoffset=2     yoffset=6    xadvance=16     page=0  chnl=0 
char id=40   x=113     y=0     width=14     height=45     xoffset=2     yoffset=6    xadvance=16     page=0  chnl=0 
char id=36   x=127     y=0     width=21     height=41     xoffset=2     yoffset=8    xadvance=24     page=0  chnl=0 
char id=56   x=148     y=0     width=26     height=41     xoffset=2     yoffset=8    xadvance=29     page=0  chnl=0 
char id=51   x=174     y=0     width=24     height=41     xoffset=3     yoffset=8    xadvance=29     page=0  chnl=0 
char id=79   x=198     y=0     width=41     height=41     xoffset=2     yoffset=8    xadvance=44     page=0  chnl=0 
char id=38   x=239     y=0     width=29     height=40     xoffset=1     yoffset=9    xadvance=31     page=0  chnl=0 
char id=33   x=268     y=0     width=7     height=40     xoffset=2     yoffset=9    xadvance=10     page=0  chnl=0 
char id=48   x=275     y=0     width=28     height=40     xoffset=1     yoffset=9    xadvance=29     page=0  chnl=0 
char id=57   x=303     y=0     width=28     height=40     xoffset=1     yoffset=9    xadvance=29     page=0  chnl=0 
char id=54   x=331     y=0     width=28     height=40     xoffset=1     yoffset=9    xadvance=29     page=0  chnl=0 
char id=53   x=359     y=0     width=26     height=40     xoffset=2     yoffset=9    xadvance=29     page=0  chnl=0 
char id=50   x=385     y=0     width=24     height=40     xoffset=3     yoffset=8    xadvance=29     page=0  chnl=0 
char id=100   x=409     y=0     width=28     height=40     xoffset=2     yoffset=9    xadvance=32     page=0  chnl=0 
char id=98   x=437     y=0     width=27     height=40     xoffset=3     yoffset=9    xadvance=32     page=0  chnl=0 
char id=87   x=464     y=0     width=36     height=40     xoffset=2     yoffset=9    xadvance=39     page=0  chnl=0 
char id=86   x=0     y=48     width=30     height=40     xoffset=1     yoffset=9    xadvance=30     page=0  chnl=0 
char id=85   x=30     y=48     width=27     height=40     xoffset=3     yoffset=9    xadvance=32     page=0  chnl=0 
char id=83   x=57     y=48     width=24     height=40     xoffset=1     yoffset=9    xadvance=24     page=0  chnl=0 
char id=74   x=81     y=48     width=16     height=40     xoffset=2     yoffset=9    xadvance=20     page=0  chnl=0 
char id=71   x=97     y=48     width=34     height=40     xoffset=2     yoffset=9    xadvance=38     page=0  chnl=0 
char id=67   x=131     y=48     width=34     height=40     xoffset=2     yoffset=9    xadvance=37     page=0  chnl=0 
char id=65   x=165     y=48     width=30     height=40     xoffset=1     yoffset=8    xadvance=30     page=0  chnl=0 
char id=92   x=195     y=48     width=24     height=39     xoffset=-2     yoffset=9    xadvance=17     page=0  chnl=0 
char id=47   x=219     y=48     width=24     height=39     xoffset=-2     yoffset=9    xadvance=17     page=0  chnl=0 
char id=63   x=243     y=48     width=18     height=39     xoffset=2     yoffset=10    xadvance=22     page=0  chnl=0 
char id=55   x=261     y=48     width=24     height=39     xoffset=3     yoffset=9    xadvance=29     page=0  chnl=0 
char id=52   x=285     y=48     width=23     height=39     xoffset=4     yoffset=9    xadvance=29     page=0  chnl=0 
char id=49   x=308     y=48     width=6     height=39     xoffset=12     yoffset=9    xadvance=29     page=0  chnl=0 
char id=108   x=314     y=48     width=4     height=39     xoffset=3     yoffset=9    xadvance=9     page=0  chnl=0 
char id=106   x=318     y=48     width=8     height=39     xoffset=1     yoffset=15    xadvance=11     page=0  chnl=0 
char id=104   x=326     y=48     width=20     height=39     xoffset=3     yoffset=9    xadvance=25     page=0  chnl=0 
char id=90   x=346     y=48     width=26     height=39     xoffset=3     yoffset=9    xadvance=31     page=0  chnl=0 
char id=89   x=372     y=48     width=30     height=39     xoffset=1     yoffset=9    xadvance=30     page=0  chnl=0 
char id=88   x=402     y=48     width=28     height=39     xoffset=1     yoffset=9    xadvance=29     page=0  chnl=0 
char id=84   x=430     y=48     width=23     height=39     xoffset=1     yoffset=9    xadvance=23     page=0  chnl=0 
char id=82   x=453     y=48     width=23     height=39     xoffset=3     yoffset=9    xadvance=26     page=0  chnl=0 
char id=80   x=476     y=48     width=23     height=39     xoffset=3     yoffset=9    xadvance=26     page=0  chnl=0 
char id=78   x=0     y=88     width=26     height=39     xoffset=3     yoffset=9    xadvance=31     page=0  chnl=0 
char id=77   x=26     y=88     width=35     height=39     xoffset=3     yoffset=9    xadvance=40     page=0  chnl=0 
char id=76   x=61     y=88     width=19     height=39     xoffset=3     yoffset=9    xadvance=22     page=0  chnl=0 
char id=75   x=80     y=88     width=22     height=39     xoffset=3     yoffset=9    xadvance=26     page=0  chnl=0 
char id=73   x=102     y=88     width=5     height=39     xoffset=3     yoffset=9    xadvance=10     page=0  chnl=0 
char id=72   x=107     y=88     width=22     height=39     xoffset=3     yoffset=9    xadvance=27     page=0  chnl=0 
char id=70   x=129     y=88     width=18     height=39     xoffset=3     yoffset=9    xadvance=23     page=0  chnl=0 
char id=69   x=147     y=88     width=21     height=39     xoffset=3     yoffset=9    xadvance=25     page=0  chnl=0 
char id=68   x=168     y=88     width=24     height=39     xoffset=3     yoffset=9    xadvance=28     page=0  chnl=0 
char id=66   x=192     y=88     width=21     height=39     xoffset=3     yoffset=9    xadvance=25     page=0  chnl=0 
char id=102   x=213     y=88     width=14     height=37     xoffset=2     yoffset=11    xadvance=12     page=0  chnl=0 
char id=113   x=227     y=88     width=27     height=36     xoffset=2     yoffset=21    xadvance=31     page=0  chnl=0 
char id=112   x=254     y=88     width=27     height=36     xoffset=3     yoffset=21    xadvance=31     page=0  chnl=0 
char id=103   x=281     y=88     width=28     height=35     xoffset=2     yoffset=21    xadvance=32     page=0  chnl=0 
char id=64   x=309     y=88     width=35     height=34     xoffset=2     yoffset=18    xadvance=38     page=0  chnl=0 
char id=121   x=344     y=88     width=22     height=34     xoffset=1     yoffset=23    xadvance=24     page=0  chnl=0 
char id=116   x=366     y=88     width=13     height=34     xoffset=2     yoffset=14    xadvance=16     page=0  chnl=0 
char id=107   x=379     y=88     width=17     height=34     xoffset=3     yoffset=14    xadvance=19     page=0  chnl=0 
char id=37   x=396     y=88     width=27     height=33     xoffset=1     yoffset=15    xadvance=29     page=0  chnl=0 
char id=105   x=423     y=88     width=7     height=33     xoffset=2     yoffset=15    xadvance=10     page=0  chnl=0 
char id=35   x=430     y=88     width=35     height=32     xoffset=2     yoffset=13    xadvance=39     page=0  chnl=0 
char id=127   x=465     y=88     width=31     height=30     xoffset=7     yoffset=14    xadvance=43     page=0  chnl=0 
char id=111   x=0     y=127     width=27     height=28     xoffset=2     yoffset=21    xadvance=30     page=0  chnl=0 
char id=101   x=27     y=127     width=25     height=28     xoffset=2     yoffset=21    xadvance=28     page=0  chnl=0 
char id=99   x=52     y=127     width=25     height=28     xoffset=2     yoffset=21    xadvance=28     page=0  chnl=0 
char id=97   x=77     y=127     width=28     height=28     xoffset=2     yoffset=21    xadvance=32     page=0  chnl=0 
char id=59   x=105     y=127     width=8     height=26     xoffset=2     yoffset=28    xadvance=11     page=0  chnl=0 
char id=119   x=113     y=127     width=27     height=26     xoffset=3     yoffset=23    xadvance=32     page=0  chnl=0 
char id=118   x=140     y=127     width=24     height=26     xoffset=1     yoffset=23    xadvance=25     page=0  chnl=0 
char id=117   x=164     y=127     width=21     height=26     xoffset=3     yoffset=23    xadvance=26     page=0  chnl=0 
char id=115   x=185     y=127     width=16     height=26     xoffset=2     yoffset=23    xadvance=19     page=0  chnl=0 
char id=110   x=201     y=127     width=20     height=26     xoffset=3     yoffset=22    xadvance=25     page=0  chnl=0 
char id=109   x=221     y=127     width=27     height=26     xoffset=3     yoffset=22    xadvance=32     page=0  chnl=0 
char id=122   x=248     y=127     width=18     height=25     xoffset=3     yoffset=23    xadvance=23     page=0  chnl=0 
char id=120   x=266     y=127     width=19     height=25     xoffset=1     yoffset=23    xadvance=20     page=0  chnl=0 
char id=114   x=285     y=127     width=11     height=25     xoffset=3     yoffset=23    xadvance=14     page=0  chnl=0 
char id=43   x=296     y=127     width=21     height=21     xoffset=2     yoffset=23    xadvance=25     page=0  chnl=0 
char id=62   x=317     y=127     width=29     height=21     xoffset=2     yoffset=24    xadvance=32     page=0  chnl=0 
char id=60   x=346     y=127     width=29     height=21     xoffset=2     yoffset=24    xadvance=32     page=0  chnl=0 
char id=58   x=375     y=127     width=7     height=21     xoffset=2     yoffset=28    xadvance=10     page=0  chnl=0 
char id=42   x=382     y=127     width=14     height=16     xoffset=3     yoffset=9    xadvance=19     page=0  chnl=0 
char id=39   x=396     y=127     width=5     height=16     xoffset=2     yoffset=9    xadvance=8     page=0  chnl=0 
char id=34   x=401     y=127     width=10     height=16     xoffset=2     yoffset=9    xadvance=13     page=0  chnl=0 
char id=94   x=411     y=127     width=19     height=15     xoffset=2     yoffset=9    xadvance=22     page=0  chnl=0 
char id=61   x=430     y=127     width=21     height=11     xoffset=2     yoffset=28    xadvance=25     page=0  chnl=0 
char id=44   x=451     y=127     width=8     height=11     xoffset=0     yoffset=43    xadvance=9     page=0  chnl=0 
char id=126   x=459     y=127     width=27     height=9     xoffset=2     yoffset=24    xadvance=30     page=0  chnl=0 
char id=46   x=486     y=127     width=6     height=6     xoffset=2     yoffset=43    xadvance=9     page=0  chnl=0 
char id=96   x=492     y=127     width=10     height=6     xoffset=3     yoffset=14    xadvance=15     page=0  chnl=0 
char id=95   x=0     y=155     width=26     height=4     xoffset=0     yoffset=47    xadvance=25     page=0  chnl=0 
char id=45   x=26     y=155     width=16     height=4     xoffset=2     yoffset=32    xadvance=20     page=0  chnl=0 
kernings count=1089
kerning first=81  second=44  amount=-1
kerning first=81  second=46  amount=-1
kerning first=79  second=44  amount=-3
kerning first=79  second=46  amount=-3
kerning first=79  second=58  amount=-1
kerning first=79  second=59  amount=-1
kerning first=79  second=65  amount=-1
kerning first=79  second=84  amount=-2
kerning first=79  second=86  amount=-1
kerning first=79  second=88  amount=-1
kerning first=79  second=89  amount=-1
kerning first=100  second=44  amount=-1
kerning first=100  second=46  amount=-1
kerning first=98  second=44  amount=-2
kerning first=98  second=46  amount=-2
kerning first=98  second=58  amount=-1
kerning first=98  second=59  amount=-1
kerning first=87  second=44  amount=-3
kerning first=87  second=45  amount=-3
kerning first=87  second=46  amount=-3
kerning first=87  second=58  amount=-1
kerning first=87  second=59  amount=-1
kerning first=87  second=65  amount=-1
kerning first=87  second=97  amount=-2
kerning first=87  second=101  amount=-2
kerning first=87  second=111  amount=-2
kerning first=87  second=114  amount=-1
kerning first=87  second=117  amount=-1
kerning first=86  second=44  amount=-5
kerning first=86  second=45  amount=-3
kerning first=86  second=46  amount=-5
kerning first=86  second=58  amount=-2
kerning first=86  second=59  amount=-2
kerning first=86  second=65  amount=-1
kerning first=86  second=79  amount=-1
kerning first=86  second=97  amount=-3
kerning first=86  second=101  amount=-3
kerning first=86  second=105  amount=-1
kerning first=86  second=111  amount=-3
kerning first=86  second=117  amount=-1
kerning first=86  second=121  amount=-1
kerning first=85  second=44  amount=-2
kerning first=85  second=46  amount=-2
kerning first=85  second=65  amount=-1
kerning first=83  second=44  amount=-2
kerning first=83  second=45  amount=1
kerning first=83  second=46  amount=-2
kerning first=83  second=58  amount=-1
kerning first=83  second=59  amount=-1
kerning first=74  second=44  amount=-2
kerning first=74  second=46  amount=-2
kerning first=74  second=58  amount=-1
kerning first=74  second=59  amount=-1
kerning first=74  second=65  amount=-1
kerning first=71  second=44  amount=-2
kerning first=71  second=46  amount=-2
kerning first=71  second=58  amount=-1
kerning first=71  second=59  amount=-1
kerning first=67  second=44  amount=-1
kerning first=67  second=46  amount=-1
kerning first=67  second=58  amount=-1
kerning first=67  second=59  amount=-1
kerning first=67  second=65  amount=-1
kerning first=65  second=44  amount=-1
kerning first=65  second=45  amount=-1
kerning first=65  second=46  amount=-1
kerning first=65  second=58  amount=-1
kerning first=65  second=59  amount=-1
kerning first=65  second=67  amount=-1
kerning first=65  second=71  amount=-1
kerning first=65  second=79  amount=-1
kerning first=65  second=81  amount=-1
kerning first=65  second=83  amount=1
kerning first=65  second=84  amount=-2
kerning first=65  second=85  amount=-1
kerning first=65  second=86  amount=-1
kerning first=65  second=87  amount=-1
kerning first=65  second=89  amount=-2
kerning first=65  second=118  amount=-1
kerning first=65  second=119  amount=-1
kerning first=65  second=121  amount=-1
kerning first=108  second=44  amount=-1
kerning first=108  second=46  amount=-1
kerning first=106  second=44  amount=-1
kerning first=106  second=46  amount=-1
kerning first=104  second=44  amount=-1
kerning first=104  second=46  amount=-1
kerning first=104  second=121  amount=-1
kerning first=90  second=44  amount=-2
kerning first=90  second=45  amount=-3
kerning first=90  second=46  amount=-2
kerning first=89  second=44  amount=-5
kerning first=89  second=45  amount=-3
kerning first=89  second=46  amount=-5
kerning first=89  second=58  amount=-2
kerning first=89  second=59  amount=-2
kerning first=89  second=65  amount=-2
kerning first=89  second=79  amount=-1
kerning first=89  second=97  amount=-3
kerning first=89  second=101  amount=-3
kerning first=89  second=111  amount=-3
kerning first=89  second=117  amount=-2
kerning first=88  second=44  amount=-1
kerning first=88  second=45  amount=-2
kerning first=88  second=46  amount=-1
kerning first=88  second=58  amount=-1
kerning first=88  second=59  amount=-1
kerning first=88  second=67  amount=-1
kerning first=88  second=79  amount=-1
kerning first=88  second=101  amount=-1
kerning first=84  second=44  amount=-3
kerning first=84  second=45  amount=-3
kerning first=84  second=46  amount=-3
kerning first=84  second=58  amount=-2
kerning first=84  second=59  amount=-2
kerning first=84  second=65  amount=-2
kerning first=84  second=67  amount=-2
kerning first=84  second=79  amount=-2
kerning first=84  second=97  amount=-2
kerning first=84  second=99  amount=-2
kerning first=84  second=101  amount=-2
kerning first=84  second=111  amount=-2
kerning first=84  second=114  amount=-1
kerning first=84  second=115  amount=-1
kerning first=84  second=117  amount=-1
kerning first=84  second=119  amount=-1
kerning first=84  second=121  amount=-1
kerning first=82  second=44  amount=-3
kerning first=82  second=45  amount=-2
kerning first=82  second=46  amount=-3
kerning first=82  second=58  amount=-1
kerning first=82  second=59  amount=-1
kerning first=82  second=97  amount=-1
kerning first=82  second=101  amount=-1
kerning first=82  second=111  amount=-1
kerning first=80  second=44  amount=-11
kerning first=80  second=45  amount=-3
kerning first=80  second=46  amount=-11
kerning first=80  second=58  amount=-2
kerning first=80  second=59  amount=-2
kerning first=80  second=65  amount=-3
kerning first=80  second=97  amount=-2
kerning first=80  second=101  amount=-2
kerning first=80  second=105  amount=-1
kerning first=80  second=110  amount=-1
kerning first=80  second=111  amount=-2
kerning first=80  second=114  amount=-1
kerning first=80  second=115  amount=-1
kerning first=80  second=117  amount=-1
kerning first=78  second=44  amount=-1
kerning first=78  second=46  amount=-1
kerning first=78  second=58  amount=-1
kerning first=78  second=59  amount=-1
kerning first=77  second=44  amount=-1
kerning first=77  second=46  amount=-1
kerning first=77  second=58  amount=-1
kerning first=77  second=59  amount=-1
kerning first=76  second=44  amount=-2
kerning first=76  second=45  amount=-3
kerning first=76  second=46  amount=-2
kerning first=76  second=58  amount=-1
kerning first=76  second=59  amount=-1
kerning first=76  second=79  amount=-2
kerning first=76  second=84  amount=-2
kerning first=76  second=85  amount=-1
kerning first=76  second=86  amount=-4
kerning first=76  second=87  amount=-3
kerning first=76  second=89  amount=-3
kerning first=76  second=97  amount=-1
kerning first=76  second=101  amount=-1
kerning first=76  second=111  amount=-1
kerning first=76  second=117  amount=-1
kerning first=76  second=121  amount=-3
kerning first=75  second=44  amount=-1
kerning first=75  second=45  amount=-3
kerning first=75  second=46  amount=-1
kerning first=75  second=58  amount=-1
kerning first=75  second=59  amount=-1
kerning first=75  second=67  amount=-2
kerning first=75  second=79  amount=-2
kerning first=75  second=87  amount=-1
kerning first=75  second=89  amount=-1
kerning first=75  second=97  amount=-2
kerning first=75  second=101  amount=-2
kerning first=75  second=111  amount=-2
kerning first=75  second=117  amount=-1
kerning first=75  second=121  amount=-2
kerning first=73  second=44  amount=-1
kerning first=73  second=46  amount=-1
kerning first=73  second=58  amount=-1
kerning first=73  second=59  amount=-1
kerning first=72  second=44  amount=-1
kerning first=72  second=46  amount=-1
kerning first=72  second=58  amount=-1
kerning first=72  second=59  amount=-1
kerning first=70  second=44  amount=-6
kerning first=70  second=45  amount=-1
kerning first=70  second=46  amount=-6
kerning first=70  second=58  amount=-3
kerning first=70  second=59  amount=-3
kerning first=70  second=65  amount=-2
kerning first=70  second=83  amount=-2
kerning first=70  second=97  amount=-1
kerning first=70  second=101  amount=-1
kerning first=70  second=105  amount=-1
kerning first=70  second=111  amount=-1
kerning first=70  second=114  amount=-1
kerning first=70  second=117  amount=-1
kerning first=70  second=121  amount=-1
kerning first=69  second=44  amount=-1
kerning first=69  second=45  amount=-1
kerning first=69  second=46  amount=-1
kerning first=69  second=58  amount=-2
kerning first=69  second=59  amount=-2
kerning first=68  second=44  amount=-3
kerning first=68  second=45  amount=1
kerning first=68  second=46  amount=-3
kerning first=68  second=58  amount=-1
kerning first=68  second=59  amount=-1
kerning first=68  second=65  amount=-1
kerning first=68  second=86  amount=-1
kerning first=68  second=87  amount=-1
kerning first=68  second=89  amount=-1
kerning first=66  second=44  amount=-2
kerning first=66  second=46  amount=-2
kerning first=66  second=58  amount=-2
kerning first=66  second=59  amount=-2
kerning first=102  second=44  amount=-3
kerning first=102  second=45  amount=-1
kerning first=102  second=46  amount=-3
kerning first=102  second=105  amount=-1
kerning first=102  second=108  amount=-1
kerning first=113  second=44  amount=-1
kerning first=113  second=46  amount=-1
kerning first=112  second=44  amount=-2
kerning first=112  second=46  amount=-2
kerning first=112  second=58  amount=-1
kerning first=112  second=59  amount=-1
kerning first=103  second=44  amount=-1
kerning first=103  second=46  amount=-1
kerning first=121  second=44  amount=-4
kerning first=121  second=45  amount=-1
kerning first=121  second=46  amount=-4
kerning first=121  second=97  amount=-1
kerning first=121  second=111  amount=-1
kerning first=116  second=44  amount=-3
kerning first=116  second=45  amount=-1
kerning first=116  second=46  amount=-3
kerning first=107  second=44  amount=-1
kerning first=107  second=45  amount=-2
kerning first=107  second=46  amount=-1
kerning first=107  second=97  amount=-1
kerning first=107  second=101  amount=-1
kerning first=107  second=111  amount=-1
kerning first=107  second=121  amount=-1
kerning first=105  second=44  amount=-1
kerning first=105  second=46  amount=-1
kerning first=111  second=44  amount=-2
kerning first=111  second=46  amount=-2
kerning first=111  second=58  amount=-1
kerning first=111  second=59  amount=-1
kerning first=111  second=118  amount=-1
kerning first=101  second=44  amount=-2
kerning first=101  second=46  amount=-2
kerning first=101  second=58  amount=-1
kerning first=101  second=59  amount=-1
kerning first=99  second=44  amount=-2
kerning first=99  second=46  amount=-2
kerning first=99  second=58  amount=-1
kerning first=99  second=59  amount=-1
kerning first=97  second=44  amount=-1
kerning first=97  second=46  amount=-1
kerning first=119  second=44  amount=-3
kerning first=119  second=45  amount=-2
kerning first=119  second=46  amount=-3
kerning first=119  second=58  amount=-1
kerning first=119  second=59  amount=-1
kerning first=119  second=97  amount=-1
kerning first=119  second=111  amount=-1
kerning first=118  second=44  amount=-5
kerning first=118  second=45  amount=-2
kerning first=118  second=46  amount=-5
kerning first=118  second=58  amount=-1
kerning first=118  second=59  amount=-1
kerning first=118  second=97  amount=-1
kerning first=117  second=44  amount=-1
kerning first=117  second=46  amount=-1
kerning first=115  second=44  amount=-2
kerning first=115  second=46  amount=-2
kerning first=110  second=44  amount=-1
kerning first=110  second=46  amount=-1
kerning first=110  second=118  amount=-1
kerning first=109  second=44  amount=-1
kerning first=109  second=46  amount=-1
kerning first=122  second=44  amount=-2
kerning first=122  second=45  amount=-1
kerning first=122  second=46  amount=-2
kerning first=122  second=58  amount=-1
kerning first=122  second=59  amount=-1
kerning first=120  second=44  amount=-1
kerning first=120  second=45  amount=-2
kerning first=120  second=46  amount=-1
kerning first=120  second=58  amount=-1
kerning first=120  second=59  amount=-1
kerning first=114  second=44  amount=-3
kerning first=114  second=45  amount=-1
kerning first=114  second=46  amount=-3
kerning first=114  second=102  amount=2
kerning first=114  second=109  amount=1
kerning first=114  second=116  amount=1
kerning first=114  second=118  amount=2
kerning first=114  second=119  amount=2
kerning first=114  second=120  amount=2
kerning first=114  second=121  amount=3
kerning first=114  second=122  amount=1
kerning first=45  second=65  amount=-1
kerning first=45  second=74  amount=-3
kerning first=45  second=83  amount=-2
kerning first=45  second=84  amount=-3
kerning first=45  second=86  amount=-3
kerning first=45  second=87  amount=-3
kerning first=45  second=88  amount=-2
kerning first=45  second=89  amount=-3
kerning first=45  second=106  amount=1
kerning first=45  second=116  amount=-1
kerning first=45  second=118  amount=-2
kerning first=45  second=119  amount=-2
kerning first=45  second=120  amount=-2
